<org.uberfire.java.nio.base.Properties serialization="custom">
  <unserializable-parents/>
  <map>
    <default>
      <loadFactor>0.75</loadFactor>
      <threshold>12</threshold>
    </default>
    <int>16</int>
    <int>1</int>
    <string>dcore.description[0]</string>
    <string>&lt;documentation&gt;
This rule calculates premium based on formula
yearly Premium = Sum Assured *factor *(rate+1)/1000
</string>
  </map>
</org.uberfire.java.nio.base.Properties>